{
	"landingPage": {
		"corporate": {
			"Critical Picks Completed Within an Hour %": {
				"Plan": 90,
				"Daily Actual": 87,
				"WTD Actual": 88,
				"MTD Actual": 90,
				"YTD Actual": 88
			},
			"Fill Picks Completed On Time %": {
				"Plan": 90,
				"Daily Actual": 92,
				"WTD Actual": 90,
				"MTD Actual": 87,
				"YTD Actual": 85
			},
			"Bin Accuracy %": {
				"Plan": 95,
				"Daily Actual": 83,
				"WTD Actual": 88,
				"MTD Actual": 96,
				"YTD Actual": 86
			},
			"Overnight Binning %": {
				"Plan": 90,
				"Daily Actual": 89,
				"WTD Actual": 90,
				"MTD Actual": 90,
				"YTD Actual": 93
			},
			"Modular Assignment %": {
				"Plan": 90,
				"Daily Actual": 88,
				"WTD Actual": 89,
				"MTD Actual": 86,
				"YTD Actual": 89
			},
			"Counts": {
				"Plan": 90,
				"Daily Actual": 78,
				"WTD Actual": 87,
				"MTD Actual": 89,
				"YTD Actual": 90
			},
			"OSCA Score": {
				"Plan": 85,
				"Daily Actual": 86,
				"WTD Actual": 80,
				"MTD Actual": 83,
				"YTD Actual": 84
			}
		},
		"region1": {
			"Critical Picks Completed Within an Hour %": {
				"Plan": 90,
				"Daily Actual": 87,
				"WTD Actual": 88,
				"MTD Actual": 90,
				"YTD Actual": 88
			},
			"Fill Picks Completed On Time %": {
				"Plan": 90,
				"Daily Actual": 92,
				"WTD Actual": 90,
				"MTD Actual": 87,
				"YTD Actual": 85
			},
			"Bin Accuracy %": {
				"Plan": 95,
				"Daily Actual": 83,
				"WTD Actual": 88,
				"MTD Actual": 96,
				"YTD Actual": 86
			},
			"Overnight Binning %": {
				"Plan": 90,
				"Daily Actual": 89,
				"WTD Actual": 90,
				"MTD Actual": 90,
				"YTD Actual": 93
			},
			"Modular Assignment %": {
				"Plan": 90,
				"Daily Actual": 88,
				"WTD Actual": 89,
				"MTD Actual": 86,
				"YTD Actual": 89
			},
			"Counts": {
				"Plan": 90,
				"Daily Actual": 78,
				"WTD Actual": 87,
				"MTD Actual": 89,
				"YTD Actual": 90
			},
			"OSCA Score": {
				"Plan": 85,
				"Daily Actual": 86,
				"WTD Actual": 80,
				"MTD Actual": 83,
				"YTD Actual": 84
			}
		},
		"region2": {
			"Critical Picks Completed Within an Hour %": {
				"Plan": 90,
				"Daily Actual": 87,
				"WTD Actual": 88,
				"MTD Actual": 90,
				"YTD Actual": 88
			},
			"Fill Picks Completed On Time %": {
				"Plan": 90,
				"Daily Actual": 92,
				"WTD Actual": 90,
				"MTD Actual": 87,
				"YTD Actual": 85
			},
			"Bin Accuracy %": {
				"Plan": 95,
				"Daily Actual": 83,
				"WTD Actual": 88,
				"MTD Actual": 96,
				"YTD Actual": 86
			},
			"Overnight Binning %": {
				"Plan": 90,
				"Daily Actual": 89,
				"WTD Actual": 90,
				"MTD Actual": 90,
				"YTD Actual": 93
			},
			"Modular Assignment %": {
				"Plan": 90,
				"Daily Actual": 88,
				"WTD Actual": 89,
				"MTD Actual": 86,
				"YTD Actual": 89
			},
			"Counts": {
				"Plan": 90,
				"Daily Actual": 78,
				"WTD Actual": 87,
				"MTD Actual": 89,
				"YTD Actual": 90
			},
			"OSCA Score": {
				"Plan": 85,
				"Daily Actual": 86,
				"WTD Actual": 80,
				"MTD Actual": 83,
				"YTD Actual": 84
			}
		},
		"region3": {
			"Critical Picks Completed Within an Hour %": {
				"Plan": 90,
				"Daily Actual": 87,
				"WTD Actual": 88,
				"MTD Actual": 90,
				"YTD Actual": 88
			},
			"Fill Picks Completed On Time %": {
				"Plan": 90,
				"Daily Actual": 92,
				"WTD Actual": 90,
				"MTD Actual": 87,
				"YTD Actual": 85
			},
			"Bin Accuracy %": {
				"Plan": 95,
				"Daily Actual": 83,
				"WTD Actual": 88,
				"MTD Actual": 96,
				"YTD Actual": 86
			},
			"Overnight Binning %": {
				"Plan": 90,
				"Daily Actual": 89,
				"WTD Actual": 90,
				"MTD Actual": 90,
				"YTD Actual": 93
			},
			"Modular Assignment %": {
				"Plan": 90,
				"Daily Actual": 88,
				"WTD Actual": 89,
				"MTD Actual": 86,
				"YTD Actual": 89
			},
			"Counts": {
				"Plan": 90,
				"Daily Actual": 78,
				"WTD Actual": 87,
				"MTD Actual": 89,
				"YTD Actual": 90
			},
			"OSCA Score": {
				"Plan": 85,
				"Daily Actual": 86,
				"WTD Actual": 80,
				"MTD Actual": 83,
				"YTD Actual": 84
			}
		}
	}
}
